-1483842483
-1483842478
-1483842478
-1483842476
-1483842478
-1483842482
-1483842481
-1483842481
-1483842483
-1483842487
-1483842492
-1483842492
-1483842497
-1483842501
-1483842499
-1483842495
-1483842499
-1483842502
-1483842505
-1483842503
-1483842507
-1483842508
-1483842511
-1483842513
-1483842514
-1483842510
-1483842510
-1483842512
-1483842506
-1483842510
-1483842505
-1483842502
-1483842507
-1483842503
-1483842497
-1483842499
-1483842503
-1483842497
-1483842500
-1483842501
-1483842495
-1483842492
-1483842486
-1483842486
-1483842484
-1483842478
-1483842472
-1483842470
-1483842465
-1483842459
-1483842456
-1483842454
-1483842458
-1483842459
-1483842462
-1483842463
-1483842464
-1483842468
-1483842466
-1483842462
-1483842458
-1483842459
-1483842464
-1483842462
-1483842456
-1483842458
-1483842457
-1483842456
-1483842455
-1483842449
-1483842446
-1483842447
-1483842443
-1483842443
-1483842437
-1483842436
-1483842435
-1483842435
-1483842440
-1483842439
-1483842439
-1483842437
-1483842442
-1483842440
-1483842435
-1483842430
-1483842433
-1483842433
-1483842427
-1483842432
-1483842429
-1483842424
-1483842418
-1483842412
-1483842410
-1483842411
-1483842416
-1483842412
-1483842416
-1483842412
-1483842407
-1483842406
-1483842404
-1483842404
-1483842400
-1483842402
-1483842402
-1483842401
-1483842398
-1483842402
-1483842397
-1483842394
-1483842397
-1483842400
-1483842395
-1483842400
-1483842405
-1483842401
-1483842403
-1483842399
-1483842398
-1483842400
-1483842402
-1483842401
-1483842396
-1483842390
-1483842388
-1483842389
-1483842391
-1483842388
-1483842383
-1483842380
-1483842380
-1483842384
-1483842380
-1483842380
-1483842380
-1483842375
-1483842377
-1483842378
-1483842377
-1483842379
-1483842375
-1483842375
-1483842375
-1483842380
-1483842378
-1483842374
-1483842377
-1483842382
-1483842383
-1483842378
-1483842382
-1483842376
-1483842375
-1483842375
-1483842378
-1483842374
-1483842372
-1483842373
-1483842367
-1483842369
-1483842370
-1483842364
-1483842364
-1483842358
-1483842359
-1483842356
-1483842355
-1483842352
-1483842347
-1483842352
-1483842356
-1483842360
-1483842362
-1483842363
-1483842362
-1483842358
-1483842352
-1483842348
-1483842342
-1483842347
-1483842352
-1483842352
-1483842350
-1483842347
-1483842350
-1483842349
-1483842343
-1483842345
-1483842350
-1483842355
-1483842360
-1483842361
-1483842356
-1483842360
-1483842361
-1483842357
-1483842360
-1483842355
-1483842353
-1483842347
-1483842345
-1483842344
-1483842340
-1483842344
-1483842344
-1483842348
-1483842347
-1483842347
-1483842344
-1483842349
-1483842347
-1483842342
-1483842336
-1483842332
-1483842337
-1483842332
-1483842331
-1483842331
-1483842334
-1483842331
-1483842336
-1483842333
-1483842337
-1483842341
-1483842345
-1483842348
-1483842348
-1483842350
-1483842349
-1483842346
-1483842344
-1483842338
-1483842334
-1483842330
-1483842328
-1483842327
-1483842331
-1483842332
-1483842333
-1483842328
-1483842328
-1483842329
-1483842331
-1483842331
-1483842332
-1483842326
-1483842327
-1483842332
-1483842327
-1483842332
-1483842334
-1483842333
-1483842337
-1483842334
-1483842328
-1483842333
-1483842337
-1483842338
-1483842339
-1483842336
-1483842331
-1483842331
-1483842330
-1483842327
-1483842332
-1483842326
-1483842331
-1483842329
-1483842330
-1483842325
-1483842329
-1483842332
-1483842331
-1483842331
-1483842330
-1483842327
-1483842324
-1483842322
-1483842321
-1483842321
-1483842316
-1483842312
-1483842313
-1483842312
-1483842312
-1483842316
-1483842313
-1483842314
-1483842317
-1483842315
-1483842312
-1483842314
-1483842315
-1483842314
-1483842314
-1483842309
-1483842312
-1483842311
-1483842315
-1483842317
-1483842321
-1483842315
-1483842313
-1483842313
-1483842312
-1483842317
-1483842317
-1483842314
-1483842317
-1483842321
-1483842323
-1483842325
-1483842324
-1483842322
-1483842326
-1483842328
-1483842333
-1483842331
-1483842328
-1483842329
-1483842327
-1483842332
-1483842332
-1483842337
-1483842331
-1483842325
-1483842320
-1483842316
-1483842319
-1483842320
-1483842325
-1483842322
-1483842324
-1483842319
-1483842317
-1483842316
-1483842316
-1483842321
-1483842321
-1483842324
-1483842327
-1483842327
-1483842321
-1483842316
-1483842319
-1483842316
-1483842313
-1483842317
-1483842320
-1483842322
-1483842319
-1483842318
-1483842323
-1483842324
-1483842326
-1483842320
-1483842325
-1483842329
-1483842329
-1483842327
-1483842321
-1483842318
-1483842318
-1483842319
-1483842314
-1483842318
-1483842317
-1483842313
-1483842310
-1483842306
-1483842305
-1483842308
-1483842312
-1483842306
-1483842310
-1483842306
-1483842311
-1483842306
-1483842300
-1483842302
-1483842297
-1483842297
-1483842294
-1483842299
-1483842300
-1483842305
-1483842300
-1483842303
-1483842301
-1483842295
-1483842292
-1483842292
-1483842292
-1483842288
-1483842291
-1483842285
-1483842284
-1483842288
-1483842282
-1483842276
-1483842280
-1483842283
-1483842283
-1483842278
-1483842281
-1483842277
-1483842281
-1483842284
-1483842285
-1483842290
-1483842287
-1483842281
-1483842284
-1483842278
-1483842274
-1483842272
-1483842267
-1483842263
-1483842267
-1483842262
-1483842264
-1483842263
-1483842259
-1483842259
-1483842254
-1483842250
-1483842245
-1483842245
-1483842248
-1483842253
-1483842254
-1483842254
-1483842248
-1483842245
-1483842245
-1483842242
-1483842243
-1483842237
-1483842232
-1483842234
-1483842233
-1483842228
-1483842223
-1483842227
-1483842228
-1483842225
-1483842221
-1483842220
-1483842214
-1483842215
-1483842216
-1483842216
-1483842212
-1483842206
-1483842209
-1483842207
-1483842204
-1483842199
-1483842197
-1483842191
-1483842194
-1483842198
-1483842193
-1483842198
-1483842195
-1483842200
-1483842202
-1483842204
-1483842200
-1483842198
-1483842196
-1483842194
-1483842197
-1483842192
-1483842186
-1483842185
-1483842181
-1483842179
-1483842183
-1483842178
-1483842181
-1483842177
-1483842172
-1483842175
-1483842176
-1483842170
-1483842174
-1483842171
-1483842176
-1483842171
-1483842174
-1483842173
-1483842174
-1483842170
-1483842172
-1483842167
-1483842162
-1483842161
-1483842164
-1483842163
-1483842167
-1483842166
-1483842167
-1483842162
-1483842163
-1483842162
-1483842158
-1483842161
-1483842164
-1483842164
-1483842167
-1483842170
-1483842168
-1483842167
-1483842165
-1483842166
-1483842169
-1483842170
-1483842171
-1483842165
-1483842170
-1483842165
-1483842166
-1483842160
-1483842158
-1483842155
-1483842151
-1483842148
-1483842148
-1483842150
-1483842149
-1483842144
-1483842140
-1483842139
-1483842144
-1483842148
-1483842150
-1483842145
-1483842148
-1483842150
-1483842148
-1483842142
-1483842137
-1483842142
-1483842138
-1483842133
-1483842132
-1483842130
-1483842124
-1483842118
-1483842121
-1483842115
-1483842117
-1483842111
-1483842112
-1483842106
-1483842105
-1483842110
-1483842113
-1483842107
-1483842112
-1483842115
-1483842118
-1483842118
-1483842123
-1483842119
-1483842120
-1483842123
-1483842118
-1483842119
-1483842116
-1483842112
-1483842106
-1483842104
-1483842106
-1483842106
-1483842110
-1483842114
-1483842115
-1483842119
-1483842116
-1483842116
-1483842110
-1483842106
-1483842108
-1483842104
-1483842098
-1483842098
-1483842097
-1483842100
-1483842095
-1483842091
-1483842090
-1483842089
-1483842088
-1483842087
-1483842082
-1483842078
-1483842076
-1483842073
-1483842078
-1483842080
-1483842077
-1483842076
-1483842079
-1483842079
-1483842079
-1483842078
-1483842079
-1483842082
-1483842082
-1483842084
-1483842085
-1483842079
-1483842081
-1483842084
-1483842088
-1483842082
-1483842084
-1483842084
-1483842080
-1483842074
-1483842078
-1483842075
-1483842074
-1483842075
-1483842072
-1483842077
-1483842080
-1483842075
-1483842080
-1483842080
-1483842075
-1483842070
-1483842074
-1483842076
-1483842073
-1483842068
-1483842072
-1483842069
-1483842064
-1483842065
-1483842063
-1483842063
-1483842061
-1483842059
-1483842061
-1483842063
-1483842063
-1483842068
-1483842069
-1483842067
-1483842070
-1483842073
-1483842074
-1483842069
-1483842066
-1483842061
-1483842059
-1483842056
-1483842050
-1483842044
-1483842038
-1483842039
-1483842037
-1483842032
-1483842031
-1483842030
-1483842024
-1483842019
-1483842015
-1483842009
-1483842010
-1483842011
-1483842005
-1483842010
-1483842014
-1483842018
-1483842023
-1483842024
-1483842024
-1483842020
-1483842018
-1483842017
-1483842015
-1483842014
-1483842012
-1483842012
-1483842009
-1483842003
-1483842003
-1483842006
-1483842002
-1483842001
-1483841997
-1483841999
-1483841994
-1483841998
-1483842000
-1483842005
-1483842009
-1483842004
-1483842003
-1483842004
-1483842002
-1483842001
-1483842005
-1483842001
-1483841996
-1483842001
-1483841999
-1483842002
-1483841999
-1483842002
-1483842000
-1483841994
-1483841998
-1483841993
-1483841990
-1483841992
-1483841994
-1483841995
-1483841994
-1483841993
-1483841993
-1483841990
-1483841987
-1483841990
-1483841995
-1483841990
-1483841984
-1483841980
-1483841978
-1483841983
-1483841984
-1483841981
-1483841977
-1483841973
-1483841977
-1483841977
-1483841971
-1483841973
-1483841978
-1483841983
-1483841983
-1483841986
-1483841986
-1483841981
-1483841986
-1483841986
-1483841991
-1483841987
-1483841991
-1483841988
-1483841992
-1483841988
-1483841982
-1483841979
-1483841983
-1483841978
-1483841976
-1483841976
-1483841980
-1483841981
-1483841976
-1483841973
-1483841969
-1483841964
-1483841963
-1483841960
-1483841958
-1483841960
-1483841961
-1483841963
-1483841962
-1483841963
-1483841958
-1483841952
-1483841949
-1483841946
-1483841941
-1483841938
-1483841941
-1483841945
-1483841941
-1483841938
-1483841936
-1483841931
-1483841927
-1483841923
-1483841919
-1483841921
-1483841919
-1483841921
-1483841924
-1483841923
-1483841922
-1483841921
-1483841926
-1483841923
-1483841928
-1483841929
-1483841927
-1483841926
-1483841928
-1483841932
-1483841937
-1483841933
-1483841938
-1483841941
-1483841943
-1483841937
-1483841940
-1483841934
-1483841934
-1483841931
-1483841935
-1483841935
-1483841937
-1483841942
-1483841944
-1483841949
-1483841948
-1483841942
-1483841939
-1483841939
-1483841944
-1483841941
-1483841937
-1483841932
-1483841934
-1483841929
-1483841930
-1483841935
-1483841940
-1483841939
-1483841940
-1483841938
-1483841940
-1483841943
-1483841941
-1483841943
-1483841945
-1483841946
-1483841944
-1483841938
-1483841935
-1483841934
-1483841930
-1483841928
-1483841933
-1483841937
-1483841941
-1483841943
-1483841942
-1483841936
-1483841932
-1483841930
-1483841926
-1483841928
-1483841923
-1483841920
-1483841915
-1483841915
-1483841916
-1483841921
-1483841919
-1483841921
-1483841921
-1483841922
-1483841923
-1483841918
-1483841920
-1483841920
-1483841916
-1483841912
-1483841916
-1483841915
-1483841913
-1483841913
-1483841910
-1483841914
-1483841910
-1483841913
-1483841917
-1483841919
-1483841924
-1483841928
-1483841924
-1483841927
-1483841921
-1483841920
-1483841923
-1483841923
-1483841924
-1483841929
-1483841933
-1483841933
-1483841930
-1483841934
-1483841933
-1483841930
-1483841928
-1483841930
-1483841926
-1483841923
-1483841922
-1483841922
-1483841924
-1483841928
-1483841925
-1483841927
-1483841926
-1483841926
-1483841925
-1483841924
-1483841927
-1483841925
-1483841930
-1483841930
-1483841934
-1483841936
-1483841937
-1483841936
-1483841941
-1483841941
-1483841941
-1483841945
-1483841947
-1483841951
-1483841954
-1483841957
-1483841953
-1483841956
-1483841953
-1483841949
-1483841951
-1483841956
-1483841959
-1483841954
-1483841954
-1483841948
-1483841948
-1483841943
-1483841943
-1483841948
-1483841951
-1483841956
-1483841952
-1483841956
-1483841950
-1483841951
-1483841956
-1483841956
-1483841955
-1483841954
-1483841956
-1483841955
-1483841957
-1483841959
-1483841957
-1483841962
-1483841957
-1483841959
-1483841960
-1483841965
-1483841961
-1483841956
-1483841954
-1483841952
-1483841949
-1483841946
-1483841950
-1483841948
-1483841945
-1483841948
-1483841952
-1483841950
-1483841947
-1483841950
-1483841951
-1483841955
-1483841953
-1483841953
-1483841951
-1483841956
-1483841954
-1483841958
-1483841955
-1483841956
-1483841955
-1483841956
-1483841956
-1483841950
-1483841948
-1483841945
-1483841946
-1483841950
