-1072923964
1102378098
407626922
-1147833863
2069407100
-1038469800
-782787506
652651498
129891463
-124489733
-617591360
2102030744
-216780905
994107289
-964980225
1321334876
1068394269
877873430
1624433084
-1046121564
2147199946
-1475172811
-283561336
1769362767
1497875027
-149368830
-1867857362
-1423655109
-1513652364
-1665278830
53720157
2084698651
-1756899272
854533103
-1667209590
-941423219
1669804662
-1002626996
2053414420
1150522731
229947806
434806144
-1182468952
1810567264
-1240876107
-1585779791
-878696730
-1017486402
-1523756387
-756807345
1357654340
132300943
-1118642790
962918468
267724594
-1328376343
-1962406127
1682944617
-534065025
-777560954
1404015249
-971411141
1982503163
-1375205484
-202273001
-1912914738
-1367617956
1840590536
1698400653
-1365772799
257730661
-1232517704
1526557588
-641970190
42841924
-1988856726
-1628851581
1101032628
-1627696069
1778705703
-212137298
1650069823
-2047149949
2143656853
476175082
497657000
1120706156
1120610564
-685734832
-1355059567
326013128
845599239
-1807394239
-1021720350
-103527286
-1284638393
-1713531221
-1968949064
1115117737
1007477651
581750409
-1993694563
1262696521
1928931642
1239984816
-410317318
-1572087011
-2142672740
972089543
287550409
-1865404410
-193131010
-1751652202
-1018030962
-1157579264
-409451362
1913670020
1590948231
-1306761410
602236167
-841458598
1860994337
-1695303022
-953256794
-414945971
-260716882
1896183570
123112092
-2083182022
-767883947
-328391176
224669140
-1734891213
-1956231607
-1056510262
-779419560
1939919673
195613246
1304037818
-858502176
-1081198773
-161831401
101545038
1189823404
-1374516833
1163115235
-331297725
696979347
1781814062
-2063771382
-2124581713
341439578
2018088310
-1203180861
827484517
-52548279
-1188862341
740098504
-1519426404
-605140229
2072561934
-1650424755
-1514521902
-1110955146
55592273
-791202515
-2082238227
1226235771
-1805908615
1015155558
256790692
1558253854
-910918955
-1469510457
183467804
1927200664
2050608912
1532731367
839014869
-867277734
-719018574
-913340071
1374084551
810472806
-1391267348
433457181
-1942020920
-582715174
283501716
-2086550183
-960363216
-937058867
-1836960147
-1605399736
-595558465
-168620450
-1261153620
-1429276815
-1463547971
-1839255799
1888363959
552049692
1014767970
-470335684
439129135
-869645055
-559787400
-1220047062
3071536
1566921538
609386814
-1196638498
642413271
661546139
-523248241
890329746
-1509296124
1149417944
-1232291773
771254336
-1896969632
1604522118
583920853
-1171604871
-65635935
1080484845
1273545030
-1956242314
1541211404
252594493
547643456
-1345672340
991616059
2136529670
1412845949
1689514276
-236492768
-837064723
-136080279
91263946
1060577353
-688564068
1204175110
-735793404
-1548521371
-937295622
1037161231
-347067834
1458369030
-512667492
-1825668256
70492260
1020329640
-1405708678
-1767484524
-1360810904
-933765647
-1682748443
493137903
-175919195
1005655098
-1552999752
1811139454
1511941388
-58223283
441291469
1181817468
1864619453
2035277680
-112901453
44338935
-1963359519
-1926348126
-492623971
54295475
-259860298
-962340828
1308666012
455754062
911556330
85257786
348229904
154806692
1303140909
-1373377486
2119351900
952309108
-1368894719
520869
-642157352
-755965885
1470707156
-696861700
-426864629
-1493787008
1379385423
2066579765
2038432281
-1532749336
-1810026512
-1180899609
1260803706
1454125100
-1060051498
-1829226877
312683500
-1633683504
-1870924837
1294493660
2069420458
-1233334443
1212147431
-1608007960
760919006
1491712666
-831561085
-229441081
-1237802157
-1138576770
-1921228372
-1584821499
1254098030
2052508362
-1605816087
-2067416036
-176750242
1864913486
398882207
611030076
540466066
994857289
-1919297884
-1490849971
-2070095765
1731791373
2133727761
1777545524
1716569395
-894869533
21417051
2091409749
-1231337908
-625653717
2067711140
1539963480
28665260
429763015
330963534
-680463824
517870728
208424634
-200712239
-19743143
-740715441
-1452356597
1023751886
-2093393824
1850342105
563971055
-2063167132
1993901736
-1332787744
-1804720602
-1676593983
-1129812630
-137317970
-1415359835
-1769254662
1516874749
-860338408
832651892
1228292639
360155735
-343616342
2062129881
1338625674
173079251
2040907555
1625214646
-606833033
-32934860
-1973971677
-1559121361
681093337
-60889111
669954594
-1016978289
-473435797
-314419054
-269861724
-228199316
-814058492
1836373186
2076629930
-485006840
-1731049169
-1481451002
-1826783381
-2130779143
1839173626
-1157340122
-1272907452
-1860038132
1800620302
2003315882
1229496044
1715198567
266096384
-1200300385
-987403029
-1839176467
1928003557
1039352474
1799511116
359745765
550333483
-1323260163
1304944529
116193501
-253813082
712575096
-1230652698
1559136460
1839518185
1809628882
-8016998
-673107338
1029547735
-2049068567
-1459842358
-2067973100
609792121
1899780855
647436126
-589683405
2146887952
2002589206
1572467513
-1799602724
-1758534546
167938053
-1071816789
1493306356
-2065116287
-601744340
1798198570
1542988518
1457433904
-411836707
-216559038
-442478210
-636120983
1286551516
-706765367
1835223576
1640149882
729434401
-802670506
-562943751
532640928
858387932
-185667342
-397443844
-1143644195
-1832069704
-210382576
-364005776
576994830
1708890211
225858490
-1924456384
-1066303172
-678585010
53484557
1221707604
-464412111
293127089
2114461415
1380185143
-468630706
-15747375
209990622
606345978
919415964
-553502075
-1900396173
1662084439
1770353952
699874293
1879668870
1140865816
-471241358
693152421
1567052557
1036545209
-1017176176
-1473946191
1710311936
630776908
-1285392401
-962754214
-384862569
1685782684
-142251053
-1927116608
562270903
-1441923435
-971263777
1654325233
-226292567
-263908125
1613879791
-1342662110
1118970380
1132013016
-585568987
-1511200709
1136735757
734604178
-1832073406
388965272
-1815292204
-959266212
571269174
1880414477
-223074751
1031697748
174343417
266059819
144742871
-818826930
-254354789
958612161
1597326840
-730693128
1891057306
-906463067
-1819596718
-316179138
-225847181
1220516788
-8182375
-1134526224
101642363
779237398
-1404195210
-1287969120
-1814634514
-799433530
-1986838594
943722960
-1251955128
-941535151
1403531751
247757901
-2114670637
513117661
-1427534921
78488789
-680396415
52301420
-167261123
1118438399
1650376187
306553442
1272963077
-305239204
-2064062471
-1054646460
-825117306
1203991256
1795524051
-1417517630
1317479647
-158214042
-1661805992
804357110
1427447490
1289926108
-641063202
431241198
-729000272
695382298
1370194586
610457191
-911352730
-1899656590
-1956687055
-308291109
1523275926
1293528387
607009422
-1155228226
908189914
-965630233
451513846
650643971
1685690085
-511465522
-1290032551
-616172828
180586235
-88247573
83409385
-1414123293
51542434
-57843890
-1491222800
1359918347
300067993
-1744351215
1102378974
1560026491
1131390729
-687421832
1416884385
-1676636636
-1659462406
1331524179
-1420241607
1526780369
1807160840
498066599
1582422411
933496679
-1461007530
1687701645
1330825844
1189764974
17363137
1673610841
-972415967
423865807
846749016
-1054247683
2041055645
1060557791
-1088993524
1726086575
1430231466
1551320731
565609891
1470191050
-479028011
416691509
118591730
783102705
1066858692
-1740565553
-91509173
573382010
-292236078
-573075835
-829554381
1948861704
765623261
641673393
-35032232
1284471673
1107035998
-352646039
-1034246207
668105219
-1610471495
-1208824244
-2088932025
-397028199
1795988949
498805118
610296899
1595621267
-1091421713
-220203024
465619848
-531887219
1645310891
1688136420
-419321709
1820588942
935456620
1886832560
2037432065
-1099900564
-255294236
-1410913087
-1415640256
1739353199
-1091790098
1794712290
951694473
1038923317
57076890
-1863778626
-1792300531
-184509996
718211977
-1798416733
1503616878
-1865592507
-575786117
2124877960
1392204912
-1360833281
-533511386
334941265
-1435790352
-1215850014
116190793
-696504752
1664398868
746080598
1999404287
1603390991
1848504771
1182947252
-2130400168
-1880568500
1334892887
1148165348
335381541
-911779004
1117150865
2083214150
-2016463342
1255516212
-1840047667
-730521387
-318547462
-743961316
-1481355146
-1738994038
-1484973194
668822469
-459116869
136647166
-606196553
139791109
-1822103422
-67433134
1908904597
-630230206
-223431267
-727160494
-1521312281
-100528332
695852347
-1235571240
2064623125
1356698862
-716454752
542817390
-660776726
811825950
149107992
-881946313
-1849379922
-22610285
1005341992
-669274610
-1003292301
1163557887
-1654271737
-1392339985
1403796143
1301422590
-450458036
103673493
52838923
745619286
-1935096088
381048421
1575287417
-93867648
-550709419
-658125686
-1817271668
-1527171225
-1532785649
-1156295328
1438605571
710978670
216259139
1755927829
1015615142
587034552
-1464406074
-163343731
-238728875
-694584414
-1753166264
-92011386
1143809117
259715476
-100997688
152423677
-74774003
-1021567495
1205428810
1741686479
571515529
479279243
1586176200
896813474
-64760867
-1756142381
1037008741
1450641413
-546099372
-1902332176
450657512
1936534485
-430743542
-705085290
528669543
-393440030
1382837952
-949130663
660945474
1550015955
-1697190161
1657937195
-1523426477
-1748759738
993421599
353075235
-1943926941
1478691131
-1805674888
-54047104
1509377503
42212018
-1863433831
-1044641300
-759047222
232562577
1645732008
-1825403644
-2067511819
-1967532853
-129680215
-1489518057
260219502
-1723305281
-657540589
-1519615443
1884437813
-926069283
1943803552
323346507
940094517
175431055
203534436
-336567051
-1276844430
-10891947
-616388063
-1607664140
1589322366
1157692466
843088089
1655088729
-1307490255
-292843962
-1965693277
-1079244095
-261172840
1774580924
-1910245694
1814605273
1039136557
-1606086683
200677107
460149028
1097491272
-1808740443
1565661701
772777468
979708118
141424141
709851055
-1708815659
-1911754425
-623976375
-1886802531
1990219977
308843980
-1626506820
137305547
-858716848
312580034
818855273
-1074856426
1952848974
477572201
1813146004
1226714384
-1010772398
86626265
-59258456
-2137784301
1217318684
1452839733
1458223707
1463639704
-815128480
187210272
-187020272
-1971994935
85583049
1805810543
-296966277
488298324
2099865408
1018722592
523901066
-850847103
-131300755
-1650211957
1188258691
1258049158
879490173
-445236265
-1829386135
-1414473959
1042066213
77687214
22108324
1675068487
888228839
-83191756
15500000
-373884284
1946516628
-1945153996
66713908
1534265346
1528213521
-1336109668
-643541625
-190612667
217480029
1018086955
-205184977
-2073473289
-77678894
-1548302488
1404247258
881475320
1007677354
-1413677611
95289777
-368567623
1520889284
-446081179
-2111046470
153774282
-1642180184
-610587862
1370467197
-146395216
-994210104
2075320402
554920170
-319227908
-846805496
1968869460
1805718905
2034850712
122242176
402266213
-1139032685
-93276572
-745100672
97930801
-1470971344
-1590244352
590675668
1755466695
1512859584
-1191086357
-91737528
-733673772
529526606
-1505250100
1527895918
-771447021
-428499485
-1472682992
-607251810
-76787709
770004520
240928436
1629554237
1616400859
638756942
2029854307
-1502068926
-1444940357
-212894670
1887892931
