random:

0.000000;0.000000;0.000000;0.000000;0.000000
0.000000;0.000333;0.000000;0.000000;0.000333
0.001000;0.000667;0.000667;0.000667;0.000667
0.009000;0.009000;0.008667;0.002667;0.004333
0.025667;0.025333;0.025667;0.027333;0.029333
0.343000;0.345000;0.339667;0.356333;0.398667
2.828000;2.872333;2.793333;2.834667;3.383000

almost sorted:

0.000000;0.000000;0.000000;0.000000;0.000333
0.000000;0.000000;0.000000;0.000000;0.000333
0.001000;0.001333;0.000333;0.000333;0.000333
0.026333;0.004333;0.000667;0.000667;0.002000
       -;       -;0.007667;0.010333;0.008000
       -;       -;0.092667;0.125667;0.048667
       -;       -;1.023000;2.229000;1.758000

---- pentium ----